117              
angstrom
C      -1.80740000    -0.79920000    -0.58290000
C      -1.95460000    -1.88510000     0.36020000
C      -0.56320000    -0.64220000    -1.20010000
C      -2.92360000     0.05420000    -0.84000000
N      -0.95840000    -2.73480000     0.66050000
C      -3.22020000    -2.06210000     1.00260000
C       0.48640000    -1.51570000    -0.90150000
C      -4.11890000    -0.15090000    -0.20290000
C       0.22970000    -2.56790000     0.05630000
C      -4.26690000    -1.22160000     0.72860000
C       1.78250000    -1.41550000    -1.49350000
C       1.29080000    -3.47270000     0.37420000
C       2.77110000    -2.30350000    -1.16060000
C       2.52040000    -3.34330000    -0.21610000
H      -0.41100000     0.16380000    -1.91610000
H      -2.80440000     0.86890000    -1.55070000
H      -3.31000000    -2.88300000     1.70710000
H      -4.96360000     0.50230000    -0.40350000
H      -5.22410000    -1.36600000     1.22250000
H       1.96710000    -0.62080000    -2.21280000
H       1.07770000    -4.25570000     1.09520000
H       3.75450000    -2.22120000    -1.61500000
H       3.31900000    -4.03690000     0.03310000
X     -1.80740000    -0.79920000    -0.58290000
X     -2.00324075    -1.59558658    -0.42224028
X     -1.75875925    -1.08871342     0.19954028
X     -1.18530000    -0.72070000    -0.89150000
X     -2.36550000    -0.37250000    -0.71145000
X     -1.95460000    -1.88510000     0.36020000
X     -1.45650000    -2.30995000     0.51035000
X     -2.58740000    -1.97360000     0.68140000
X     -0.56320000    -0.64220000    -1.20010000
X     -0.21466215    -1.44395092    -1.49896997
X      0.13786215    -0.71394908    -0.60263003
X     -0.43383000     0.04290000    -1.80870000
X     -2.92360000     0.05420000    -0.84000000
X     -3.34532819     0.31657310    -0.07391419
X     -3.69717181    -0.41327310    -0.96898581
X     -2.82228000     0.74669500    -1.44409500
X     -0.95840000    -2.73480000     0.66050000
X     -0.24665456    -2.40779048     0.65711572
X     -0.48204544    -2.89490952     0.05968428
X     -1.05219363    -3.23167652     1.10258618
X     -3.22020000    -2.06210000     1.00260000
X     -3.91922351    -2.00617168     0.41912222
X     -3.56787649    -1.27752832     1.31207778
X     -3.29653000    -2.75986500     1.60142500
X      0.48640000    -1.51570000    -0.90150000
X      0.35805000    -2.04180000    -0.42260000
X      1.13445000    -1.46560000    -1.19750000
X     -4.11890000    -0.15090000    -0.20290000
X     -4.19290000    -0.68625000     0.26285000
X     -4.83689500     0.40432000    -0.37341000
X      0.22970000    -2.56790000     0.05630000
X      0.76025000    -3.02030000     0.21525000
X     -4.26690000    -1.22160000     0.72860000
X     -5.08052000    -1.34434000     1.14841500
X      1.78250000    -1.41550000    -1.49350000
X      2.10039927    -2.22378254    -1.77491164
X      2.45320073    -1.49521746    -0.87918836
X      1.93941000    -0.74000500    -2.10490500
X      1.29080000    -3.47270000     0.37420000
X      2.08183463    -3.04433290     0.52586794
X      1.72936537    -3.77166710    -0.36776794
X      1.10966500    -4.13825000     0.98705000
X      2.77110000    -2.30350000    -1.16060000
X      2.64575000    -2.82340000    -0.68835000
X      3.60699000    -2.23354500    -1.54684000
X      2.52040000    -3.34330000    -0.21610000
X      3.19921000    -3.93286000    -0.00428000
He     -1.80740000    -0.79920000    -0.58290000
He     -1.95460000    -1.88510000     0.36020000
He     -1.75875925    -1.08871342     0.19954028
He     -2.00324075    -1.59558658    -0.42224028
He     -0.56320000    -0.64220000    -1.20010000
He     -1.18530000    -0.72070000    -0.89150000
He     -2.92360000     0.05420000    -0.84000000
He     -2.36550000    -0.37250000    -0.71145000
He     -0.95840000    -2.73480000     0.66050000
He     -1.45650000    -2.30995000     0.51035000
He     -1.05219363    -3.23167652     1.10258618
He     -3.22020000    -2.06210000     1.00260000
He     -2.58740000    -1.97360000     0.68140000
He      0.48640000    -1.51570000    -0.90150000
He      0.13786215    -0.71394908    -0.60263003
He     -0.21466215    -1.44395092    -1.49896997
He     -4.11890000    -0.15090000    -0.20290000
He     -3.69717181    -0.41327310    -0.96898581
He     -3.34532819     0.31657310    -0.07391419
He      0.22970000    -2.56790000     0.05630000
He     -0.48204544    -2.89490952     0.05968428
He     -0.24665456    -2.40779048     0.65711572
He      0.35805000    -2.04180000    -0.42260000
He     -4.26690000    -1.22160000     0.72860000
He     -3.56787649    -1.27752832     1.31207778
He     -3.91922351    -2.00617168     0.41912222
He     -4.19290000    -0.68625000     0.26285000
He      1.78250000    -1.41550000    -1.49350000
He      1.13445000    -1.46560000    -1.19750000
He      1.29080000    -3.47270000     0.37420000
He      0.76025000    -3.02030000     0.21525000
He      2.77110000    -2.30350000    -1.16060000
He      2.45320073    -1.49521746    -0.87918836
He      2.10039927    -2.22378254    -1.77491164
He      2.52040000    -3.34330000    -0.21610000
He      1.72936537    -3.77166710    -0.36776794
He      2.08183463    -3.04433290     0.52586794
He      2.64575000    -2.82340000    -0.68835000
He     -0.43383000     0.04290000    -1.80870000
He     -2.82228000     0.74669500    -1.44409500
He     -3.29653000    -2.75986500     1.60142500
He     -4.83689500     0.40432000    -0.37341000
He     -5.08052000    -1.34434000     1.14841500
He      1.93941000    -0.74000500    -2.10490500
He      1.10966500    -4.13825000     0.98705000
He      3.60699000    -2.23354500    -1.54684000
He      3.19921000    -3.93286000    -0.00428000
