83               
angstrom
C       0.92610000     0.62670000    -0.07160000
C       2.33630000     0.90200000     0.13790000
N       0.19820000     1.71950000    -0.33540000
C       0.43940000    -0.71050000     0.01260000
N       2.65310000     2.19860000     0.02930000
C       3.23650000    -0.16460000     0.42800000
S       1.24910000     2.98520000    -0.31310000
C       1.33690000    -1.70760000     0.29330000
C       2.72930000    -1.43590000     0.50000000
H      -0.61560000    -0.90770000    -0.14520000
H       4.28870000     0.04930000     0.58320000
H       0.99330000    -2.73590000     0.36330000
H       3.39280000    -2.26770000     0.71940000
X      0.92610000     0.62670000    -0.07160000
X      1.69923273     0.71482762    -0.35971988
X      1.56316727     0.81387238     0.42601988
X      0.56215000     1.17310000    -0.20350000
X      0.68275000    -0.04190000    -0.02950000
X      2.33630000     0.90200000     0.13790000
X      2.49470000     1.55030000     0.08360000
X      2.78640000     0.36870000     0.28295000
X      0.19820000     1.71950000    -0.33540000
X      0.79165457     2.30280828    -0.71712232
X      0.65564543     2.40189172     0.06862232
X     -0.45991388     1.65553109    -0.44125023
X      0.43940000    -0.71050000     0.01260000
X      0.78635907    -1.13492882     0.74170520
X      0.98994093    -1.28317118    -0.43580520
X     -0.45735000    -0.87812000    -0.12153000
X      2.65310000     2.19860000     0.02930000
X      1.88304809     2.64142966     0.25092979
X      2.01915191     2.54237034    -0.53472979
X      3.28969602     2.38727037     0.11579242
X      3.23650000    -0.16460000     0.42800000
X      3.08490835    -0.87429221    -0.12476712
X      2.88089165    -0.72620779     1.05276712
X      4.13087000     0.01721500     0.55992000
X      1.24910000     2.98520000    -0.31310000
X      1.20047414     3.06553369    -0.08565519
X      1.44569022     3.10375251    -0.40168163
X      1.05517357     3.02796467    -0.45840260
X      1.29506206     2.74354913    -0.30666058
X      1.11123432     3.78650765    -0.43808103
X      1.33690000    -1.70760000     0.29330000
X      2.03310000    -1.57175000     0.39665000
X      1.04484000    -2.58165500     0.35280000
X      2.72930000    -1.43590000     0.50000000
X      3.29327500    -2.14293000     0.68649000
He      0.92610000     0.62670000    -0.07160000
He      2.33630000     0.90200000     0.13790000
He      1.63120000     0.76435000     0.03315000
He      0.19820000     1.71950000    -0.33540000
He      0.56215000     1.17310000    -0.20350000
He     -0.45991388     1.65553109    -0.44125023
He      0.43940000    -0.71050000     0.01260000
He      0.58095907     0.03222118     0.55925520
He      0.78454093    -0.11602118    -0.61825520
He      2.65310000     2.19860000     0.02930000
He      2.49470000     1.55030000     0.08360000
He      3.28969602     2.38727037     0.11579242
He      3.23650000    -0.16460000     0.42800000
He      2.88840835     0.29465779    -0.30581712
He      2.68439165     0.44274221     0.87171712
He      1.24910000     2.98520000    -0.31310000
He      1.20002075     3.06679951    -0.08620384
He      1.44518099     3.10406607    -0.40238730
He      1.05503612     3.02612548    -0.45874834
He      1.29616214     2.74380894    -0.30506052
He      0.65564543     2.40189172     0.06862232
He      0.79165457     2.30280828    -0.71712232
He      2.01915191     2.54237034    -0.53472979
He      1.88304809     2.64142966     0.25092979
He      1.11123432     3.78650765    -0.43808103
He      1.33690000    -1.70760000     0.29330000
He      0.88815000    -1.20905000     0.15295000
He      2.72930000    -1.43590000     0.50000000
He      2.98290000    -0.80025000     0.46400000
He      2.13508504    -1.64583164    -0.19297743
He      1.93111496    -1.49766836     0.98627743
He     -0.45735000    -0.87812000    -0.12153000
He      4.13087000     0.01721500     0.55992000
He      1.04484000    -2.58165500     0.35280000
He      3.29327500    -2.14293000     0.68649000
