132              
angstrom
C       1.64840000     0.04480000     0.08360000
C       0.16220000    -0.17960000     0.06380000
C       2.18370000     1.28880000     0.10650000
Cl      2.61220000    -1.38700000     0.07540000
O      -0.29780000    -1.30840000     0.04320000
C      -0.70460000     1.03000000     0.07010000
C       1.32500000     2.52260000     0.11310000
Cl      3.88620000     1.57250000     0.12960000
C      -2.37050000     3.27260000     0.08120000
C      -0.98700000     3.44000000     0.09920000
C      -2.92320000     1.98780000     0.05770000
C      -2.09340000     0.86820000     0.05220000
C      -0.14940000     2.32030000     0.09380000
O       1.82820000     3.63280000     0.13360000
H      -3.01980000     4.14340000     0.08550000
H      -0.53580000     4.42640000     0.11750000
H      -4.00190000     1.86050000     0.04390000
H      -2.49880000    -0.13790000     0.03420000
X      1.64840000     0.04480000     0.08360000
X      0.90530000    -0.06740000     0.07370000
X      1.91146891     0.66129232     0.50132979
X      1.92063109     0.67230768    -0.31122979
X      2.13030000    -0.67110000     0.07950000
X      0.16220000    -0.17960000     0.06380000
X     -0.07191746    -0.74899544     0.41917381
X     -0.06368254    -0.73900456    -0.31217381
X     -0.27120000     0.42520000     0.06695000
X      2.18370000     1.28880000     0.10650000
X      1.75435000     1.90570000     0.10980000
X      3.03495000     1.43065000     0.11805000
X      2.61220000    -1.38700000     0.07540000
X      2.71510456    -1.23021817     0.19169252
X      2.58190407    -1.31704225    -0.13167948
X      2.41655026    -1.43056622     0.16768763
X      2.73524110    -1.57017336     0.07389932
X      2.74457236    -1.64761524     0.59058993
X      2.41577117    -1.86432936    -0.21517838
X      3.15815647    -1.36495540    -0.15331155
X     -0.29780000    -1.30840000     0.04320000
X     -0.07412859    -1.72864790     0.03997322
X     -0.75147141    -1.45255210     0.03612678
X     -0.70460000     1.03000000     0.07010000
X     -1.39900000     0.94910000     0.06115000
X     -0.43175450     1.66955840     0.50137817
X     -0.42224550     1.68074160    -0.33747817
X      1.32500000     2.52260000     0.11310000
X      0.58780000     2.42145000     0.10345000
X      1.57247559     3.07287340     0.48902116
X      1.58072441     3.08252660    -0.24232116
X      3.88620000     1.57250000     0.12960000
X      3.84054873     1.38708439     0.24019319
X      4.10395860     1.60809740     0.13240297
X      3.78265625     1.74242556     0.22498260
X      3.81763642     1.55239265    -0.07917877
X      4.15948912     1.64043729     0.65077126
X      4.24857479     1.16745495    -0.10607968
X      4.10178609     2.05145776    -0.14434158
X     -2.37050000     3.27260000     0.08120000
X     -1.68561564     3.34822842     0.69296605
X     -1.67188436     3.36437158    -0.51256605
X     -2.64685000     2.63020000     0.06945000
X     -2.92240500     4.01278000     0.08485500
X     -0.98700000     3.44000000     0.09920000
X     -0.56820000     2.88015000     0.09650000
X     -0.60348000     4.27844000     0.11475500
X     -2.92320000     1.98780000     0.05770000
X     -2.51518467     1.41993620     0.65773837
X     -2.50141533     1.43606380    -0.54783837
X     -3.84009500     1.87959500     0.04597000
X     -2.09340000     0.86820000     0.05220000
X     -2.43799000     0.01301500     0.03690000
X     -0.14940000     2.32030000     0.09380000
X      1.82820000     3.63280000     0.13360000
X      1.62090903     4.06135662     0.13696070
X      2.28709097     3.75934338     0.14048930
He      1.64840000     0.04480000     0.08360000
He      0.16220000    -0.17960000     0.06380000
He      0.90530000    -0.06740000     0.07370000
He      2.18370000     1.28880000     0.10650000
He      1.92063109     0.67230768    -0.31122979
He      1.91146891     0.66129232     0.50132979
He      2.61220000    -1.38700000     0.07540000
He      2.41660142    -1.43091689     0.16762984
He      2.71467179    -1.22984138     0.19156601
He      2.58185582    -1.31735576    -0.13177807
He      2.73567098    -1.56988597     0.07418222
He      2.13030000    -0.67110000     0.07950000
He      2.74457236    -1.64761524     0.59058993
He      2.41577117    -1.86432936    -0.21517838
He      3.15815647    -1.36495540    -0.15331155
He     -0.29780000    -1.30840000     0.04320000
He     -0.06368254    -0.73900456    -0.31217381
He     -0.07191746    -0.74899544     0.41917381
He     -0.07412859    -1.72864790     0.03997322
He     -0.75147141    -1.45255210     0.03612678
He     -0.70460000     1.03000000     0.07010000
He     -0.27120000     0.42520000     0.06695000
He      1.32500000     2.52260000     0.11310000
He      1.75435000     1.90570000     0.10980000
He      3.88620000     1.57250000     0.12960000
He      3.84115384     1.38699131     0.24028519
He      4.10387316     1.60863770     0.13211088
He      3.78236049     1.74218515     0.22508900
He      3.81741251     1.55218584    -0.07908507
He      3.03495000     1.43065000     0.11805000
He      4.15948912     1.64043729     0.65077126
He      4.24857479     1.16745495    -0.10607968
He      4.10178609     2.05145776    -0.14434158
He     -2.37050000     3.27260000     0.08120000
He     -0.98700000     3.44000000     0.09920000
He     -1.67188436     3.36437158    -0.51256605
He     -1.68561564     3.34822842     0.69296605
He     -2.92320000     1.98780000     0.05770000
He     -2.64685000     2.63020000     0.06945000
He     -2.09340000     0.86820000     0.05220000
He     -2.50141533     1.43606380    -0.54783837
He     -2.51518467     1.41993620     0.65773837
He     -1.39900000     0.94910000     0.06115000
He     -0.14940000     2.32030000     0.09380000
He     -0.42224550     1.68074160    -0.33747817
He     -0.43175450     1.66955840     0.50137817
He      0.58780000     2.42145000     0.10345000
He     -0.56820000     2.88015000     0.09650000
He      1.82820000     3.63280000     0.13360000
He      1.58072441     3.08252660    -0.24232116
He      1.57247559     3.07287340     0.48902116
He      1.62090903     4.06135662     0.13696070
He      2.28709097     3.75934338     0.14048930
He     -2.92240500     4.01278000     0.08485500
He     -0.60348000     4.27844000     0.11475500
He     -3.84009500     1.87959500     0.04597000
He     -2.43799000     0.01301500     0.03690000
