51               
angstrom
S      -1.21370000    -1.55350000    -0.00000000
N       0.45690000    -1.34820000     0.00000000
N      -1.41860000     0.11710000    -0.00000000
C       0.83080000    -0.06280000     0.00000000
C      -0.26200000     0.79090000    -0.00000000
H       1.80420000     0.24630000     0.00000000
H      -0.19760000     1.81020000    -0.00000000
X     -1.21370000    -1.55350000     0.00000000
X     -1.42039904    -1.50319034     0.12366714
X     -1.10379330    -1.74951565     0.10023722
X     -1.06224122    -1.35989137     0.01118293
X     -1.26836644    -1.60140264    -0.23508730
X     -0.37840000    -1.45085000    -0.50493559
X     -0.37840000    -1.45085000     0.50493559
X     -1.31615000    -0.71820000    -0.50493559
X     -1.31615000    -0.71820000     0.50493559
X     -1.73183460    -2.21664300     0.00000000
X      0.45690000    -1.34820000     0.00000000
X      0.64385000    -0.70550000     0.00000000
X      0.97119409    -1.77658671     0.00000000
X     -1.41860000     0.11710000     0.00000000
X     -0.84030000     0.45400000    -0.00000000
X     -1.95861757     0.51246505     0.00000000
X      0.83080000    -0.06280000     0.00000000
X      0.28440000     0.36405000     0.56682060
X      0.28440000     0.36405000    -0.56682060
X      1.65819000     0.19993500     0.00000000
X     -0.26200000     0.79090000     0.00000000
X     -0.20726000     1.65730500     0.00000000
He     -1.21370000    -1.55350000     0.00000000
He     -1.42551958    -1.49957578     0.11302107
He     -1.06211229    -1.36012346     0.01325883
He     -1.25798786    -1.60696841    -0.23606956
He     -1.10918026    -1.74733235     0.10978965
He     -1.73183460    -2.21664300     0.00000000
He      0.45690000    -1.34820000     0.00000000
He     -0.37840000    -1.45085000     0.50493559
He     -0.37840000    -1.45085000    -0.50493559
He      0.97119409    -1.77658671     0.00000000
He     -1.41860000     0.11710000     0.00000000
He     -1.31615000    -0.71820000     0.50493559
He     -1.31615000    -0.71820000    -0.50493559
He     -1.95861757     0.51246505     0.00000000
He      0.83080000    -0.06280000     0.00000000
He      0.64385000    -0.70550000     0.00000000
He     -0.26200000     0.79090000     0.00000000
He      0.28440000     0.36405000    -0.56682060
He      0.28440000     0.36405000     0.56682060
He     -0.84030000     0.45400000    -0.00000000
He      1.65819000     0.19993500     0.00000000
He     -0.20726000     1.65730500     0.00000000
