83
xyz
C       0.926100000000000      0.626700000000000     -0.071600000000000
C       2.336300000000000      0.902000000000000      0.137900000000000
N       0.198200000000000      1.719500000000000     -0.335400000000000
C       0.439400000000000     -0.710500000000000      0.012600000000000
N       2.653100000000000      2.198600000000000      0.029300000000000
C       3.236500000000000     -0.164600000000000      0.428000000000000
S       1.249100000000000      2.985200000000000     -0.313100000000000
C       1.336900000000000     -1.707600000000000      0.293300000000000
C       2.729300000000000     -1.435900000000000      0.500000000000000
H      -0.615600000000000     -0.907700000000000     -0.145200000000000
H       4.288700000000000      0.049300000000000      0.583200000000000
H       0.993300000000000     -2.735900000000000      0.363300000000000
H       3.392800000000000     -2.267700000000000      0.719400000000000
X       0.941587345781409      0.672612371349220     -0.074696995690634
X       1.630400834870309      0.768786375366758      0.032557532059286
X       0.510444094040177      1.178855902097746     -0.213614310258342
X       0.764398297849357     -0.105620154555219     -0.423885696922307
X       0.626561793002177     -0.005243342238502      0.372844011451058
X       2.306534055216578      0.939104554503363      0.128087270560645
X       2.541453903467385      1.575060659221091      0.088337832058520
X       2.710213958392708      0.401034770955718      0.682166177952560
X       2.848310985468610      0.300646834506120     -0.114488170924763
X       0.177307587009285      1.686958323230240     -0.334644429405794
X       0.741087425950777      2.228963687895080     -0.698183414917191
X       0.614918973651307      2.326583996260535      0.050073391615057
X      -0.479691814531227      1.693543260763882     -0.449257422177353
X       0.435030388319452     -0.758589640541701      0.017914533577282
X       0.883824326570593     -1.210766826374876      0.152490292203757
X      -0.442065963997136     -0.882777973100147     -0.118313082011697
X       2.683384676312798      2.176056273023539      0.037649991629059
X       1.952924447464657      2.587320006627885      0.247900441851270
X       2.086146696231966      2.491211313584019     -0.497101829775083
X       3.295592226874385      2.430092334026444      0.111377187880075
X       3.256584700432585     -0.207906101745022      0.436944631470025
X       2.987511724173598     -0.800241972553603      0.464867067989874
X       4.118140718046035      0.007089594659941      0.559040281667255
X       1.249024685536305      2.983654914683331     -0.312288612251928
X       1.394596382230719      3.128048332249684     -0.176710821714463
X       1.294506178145198      3.032971485018549     -0.553707532693747
X       1.015491143128233      3.032952347798169     -0.265598478450889
X       1.293620437672764      2.760931025322145     -0.263996590837698
X       1.112185636709490      3.784663081399795     -0.437228514112835
X       1.294877110018793     -1.700003894201440      0.285086000920560
X       1.926434988281481     -1.462502793121657      0.970707929196424
X       2.126940315962869     -1.608281707887794     -0.188774679449150
X       1.051668368335001     -2.561384597188756      0.351431888748571
X       2.766047579263844     -1.412898535262827      0.503436931555034
X       3.280156724315453     -2.126561356694678      0.682117240239711
He      0.941588868007827      0.672620190529643     -0.074726082893851
He      2.306545575128034      0.939084117900740      0.128060366027456
He      1.630448344973165      0.768755067943870      0.032302685588888
He      0.177392450475967      1.686916955884032     -0.335030453560258
He      0.510282320079529      1.178782733425716     -0.213059349207688
He     -0.479625424734856      1.693370314310611     -0.449585000097771
He      0.435031327256623     -0.758575962081267      0.017900319777799
He      0.626403579681342     -0.005623480600026      0.373057894289727
He      0.764402100900301     -0.106014580940454     -0.423812116125612
He      2.683467692092512      2.175988334103819      0.037214191764850
He      2.541096099380252      1.575273713900373      0.088865961482602
He      3.295508830170226      2.430347766741122      0.110999196521531
He      3.256590863862460     -0.207923221116444      0.436936930178239
He      2.847991204892165      0.301042440969173     -0.114554962430409
He      2.710034518090322      0.401507009194095      0.682205656754972
He      1.250548625580585      2.983361361381862     -0.315303920033477
He      1.198694438120840      3.039873200070903     -0.076756407749600
He      1.438946468014259      3.120575741880367     -0.384406716554382
He      1.053370314085574      3.032678716217460     -0.450401655559809
He      1.301365295632773      2.758401150245341     -0.338811765756691
He      0.611175315289324      2.323605753002767      0.051749988271681
He      0.742600922225266      2.230561739789821     -0.696741891648910
He      2.081828097009104      2.492935025832535     -0.497146019304196
He      1.955368986580015      2.586569005879823      0.251809290441399
He      1.111178604587060      3.787250445828047     -0.438556291600063
He      1.294870571477077     -1.699999847810881      0.285086122581590
He      0.883834966533110     -1.210788541039486      0.152455727259487
He      2.766042667359199     -1.412904488280226      0.503439010051478
He      2.127262193476527     -1.608236306384286     -0.188737747458551
He      1.926743714429097     -1.462426247777190      0.970782215986274
He      2.987516362173236     -0.800229996234571      0.464826132736659
He     -0.442081607275036     -0.882793689639837     -0.118289118400053
He      4.118115891906452      0.007107575147067      0.559059265989578
He      1.051682820099888     -2.561377941404344      0.351435306819652
He      3.280167157424371     -2.126561799858475      0.682122926487419
