100
xyz
C       0.055300000000000      1.319000000000000      0.841800000000000
F       1.203900000000000      1.461300000000000      1.489600000000000
C      -0.541700000000000      2.340700000000000      0.203600000000000
C      -0.537100000000000     -0.047400000000000      0.863900000000000
F      -0.023100000000000      3.561200000000000      0.177800000000000
C      -1.832300000000000      2.168900000000000     -0.519700000000000
O       0.003100000000000     -0.971500000000000      1.440500000000000
C      -1.827700000000000     -0.219200000000000      0.140600000000000
O      -2.372400000000000      3.093000000000000     -1.096300000000000
C      -2.424700000000000      0.802500000000000     -0.497600000000000
F      -2.346300000000000     -1.439600000000000      0.166400000000000
F      -3.573200000000000      0.660200000000000     -1.145400000000000
X       0.084816716025884      1.282944736598935      0.869167887981644
X       0.684800091216394      1.402462661921985      1.197926663670233
X      -0.044002377300809      1.711598186785533      0.145790943838948
X      -0.486291104587817      1.912833953592980      0.883881328007611
X      -0.227650195439788      0.648592822417722      0.857879662015352
X       1.212827521914259      1.464038567277030      1.494850835440160
X       1.105821273432759      1.238480586103525      1.965204248352799
X       1.542116320999219      1.175839262716448      1.193587235670094
X       1.285616850136048      1.994446824195879      1.489783924445171
X      -0.559994861533446      2.385934131821954      0.180036286485919
X      -0.262228186609205      3.008914305134154      0.187133267633940
X      -1.167478738096879      2.270548999102295     -0.150652594640143
X      -0.555252593951274     -0.016214472504468      0.844112290601375
X      -0.440548711325650     -0.442286478406951      1.474946696571707
X      -0.071920941232274     -0.612955609137939      0.855701845644852
X      -1.197444915762230     -0.143183391909553      0.496249207485968
X      -0.020835031199917      3.571098297219776      0.176940514781399
X       0.046706672331646      3.675222538728670      0.697648451443276
X       0.437712594552672      3.492023221787839     -0.086764312943362
X      -0.395621957279958      3.855059300741528     -0.079124312596306
X      -1.814593886708193      2.137570739887356     -0.500175949066056
X      -1.927873318809420      2.563532002010299     -1.131117259618439
X      -2.297682118735883      2.734197039458633     -0.510379820963735
X      -2.143507570721675      1.472051548496837     -0.514198175559605
X       0.014229476509562     -0.990387827364182      1.452120139790352
X       0.503303709964366     -0.900605853903734      1.719192869587905
X      -0.231869810634280     -1.498221091541580      1.445056755872318
X      -1.809768831614436     -0.264591354735300      0.163799572861594
X      -1.882664104724109      0.209493591063010     -0.539414578142534
X      -2.323790565077117      0.410945638062578      0.199571857587163
X      -2.118141857574761     -0.887062476855151      0.152846933599777
X      -2.383521167740240      3.111866509599167     -1.107911376088756
X      -2.137311893148514      3.620061488238437     -1.100963206446170
X      -2.872525642552070      3.021694824147372     -1.374944155971582
X      -2.454185218268456      0.838582095163032     -0.525002586770810
X      -3.053276119278741      0.719698306160659     -0.854668874425915
X      -2.351895392767263     -1.449039658416932      0.166182779310757
X      -2.341132984550533     -1.562842995158459      0.686083990780243
X      -2.833032566518005     -1.377667000699208     -0.058469663345117
X      -1.995449771708701     -1.722627956639410     -0.117108398349455
X      -3.581874211697451      0.657615265394978     -1.150892113186346
X      -3.919729890797776      0.903944015920004     -0.823059912159851
X      -3.491617410566373      0.924782278107128     -1.603243566342681
X      -3.632058967475342      0.125509562328393     -1.186499558346094
He      0.084816716025904      1.282944736596405      0.869167887982396
He      1.212827521914021      1.464038567277370      1.494850835440180
He      0.684800091213465      1.402462661915295      1.197926663669861
He      1.105821273432284      1.238480586107999      1.965204248354411
He      1.542116321001084      1.175839262719565      1.193587235670729
He      1.285616850128842      1.994446824197192      1.489783924441751
He     -0.559994861535503      2.385934131822849      0.180036286484451
He     -0.486291104578610      1.912833953598270      0.883881328012585
He     -0.044002377290696      1.711598186790304      0.145790943842401
He     -0.555252593945669     -0.016214472514529      0.844112290608571
He     -0.227650195463676      0.648592822436456      0.857879661995084
He     -0.020835031200436      3.571098297219890      0.176940514781165
He     -0.262228186614191      3.008914305132430      0.187133267631388
He      0.046706672328568      3.675222538727826      0.697648451443235
He      0.437712594550756      3.492023221787611     -0.086764312945118
He     -0.395621957281565      3.855059300740500     -0.079124312596069
He     -1.814593886713671      2.137570739897711     -0.500175949073127
He     -1.167478738090238      2.270548999066036     -0.150652594626047
He      0.014229476515260     -0.990387827373434      1.452120139795158
He     -0.071920941332068     -0.612955608975349      0.855701845552247
He     -0.440548711413999     -0.442286478247698      1.474946696456673
He      0.503303709945666     -0.900605853773285      1.719192869542229
He     -0.231869810730195     -1.498221091475183      1.445056755798366
He     -1.809768831612430     -0.264591354736214      0.163799572863021
He     -1.197444915768498     -0.143183391875479      0.496249207472514
He     -2.383521167745950      3.111866509608295     -1.107911376093595
He     -2.297682118633899      2.734197039292092     -0.510379820868681
He     -1.927873318718820      2.563532001847233     -1.131117259500827
He     -2.137311893051295      3.620061488171186     -1.100963206371224
He     -2.872525642533117      3.021694824015002     -1.374944155925119
He     -2.454185218268466      0.838582095165579     -0.525002586771500
He     -2.323790565085758      0.410945638055601      0.199571857585216
He     -1.882664104731611      0.209493591055289     -0.539414578145959
He     -2.143507570696641      1.472051548477007     -0.514198175538579
He     -2.351895392767552     -1.449039658416689      0.166182779310711
He     -2.118141857568570     -0.887062476854039      0.152846933602827
He     -2.341132984554814     -1.562842995157732      0.686083990780088
He     -2.833032566517018     -1.377667000691664     -0.058469663345621
He     -1.995449771711741     -1.722627956640327     -0.117108398350912
He     -3.581874211697220      0.657615265394714     -1.150892113186494
He     -3.053276119275907      0.719698306166686     -0.854668874425378
He     -3.919729890799171      0.903944015917802     -0.823059912161080
He     -3.491617410565366      0.924782278103311     -1.603243566344513
He     -3.632058967468806      0.125509562327383     -1.186499558343569
