84
xyz
C       1.753600000000000     -0.533000000000000      0.221500000000000
C       1.172300000000000      0.735700000000000     -0.022400000000000
N       3.115700000000000     -0.624200000000000     -0.036400000000000
C       0.951700000000000     -1.583700000000000      0.691200000000000
S       2.412600000000000      1.835100000000000     -0.597000000000000
C      -0.188700000000000      0.967400000000000      0.194800000000000
C       3.571800000000000      0.507100000000000     -0.457700000000000
C      -0.400800000000000     -1.353300000000000      0.906900000000000
C      -0.965900000000000     -0.089100000000000      0.660900000000000
H       1.403400000000000     -2.553300000000000      0.875900000000000
H      -0.630100000000000      1.941400000000000      0.007000000000000
H       4.609800000000000      0.677400000000000     -0.723200000000000
H      -1.032300000000000     -2.158900000000000      1.270400000000000
H      -2.026300000000000      0.067900000000000      0.837000000000000
X       1.704742819792585     -0.531143160370841      0.231130264599708
X       1.422267887970862      0.087559778790607      0.111951865554530
X       2.614803810021870     -0.453292613526698      0.456500751486940
X       2.452637989424666     -0.676949730649471     -0.320152624699476
X       1.357464192036615     -1.048746383631972      0.452627853558193
X       1.135089086410337      0.701876089946946     -0.004971248416789
X       1.633582167252047      1.133351858153715     -0.648944718169844
X       1.787652193705990      1.346027296917459      0.091283640042851
X       0.496743941651809      0.851642008487581      0.085185421984397
X       3.150524664665675     -0.624158465684640     -0.043666201234407
X       3.337511756589308     -0.068471030768924     -0.242934734947702
X       3.522143720071854     -1.136039773726248      0.026347839032645
X       0.990473574825054     -1.577215985831654      0.681312710917371
X       0.170876718837502     -1.599650703219716      0.230355973899349
X       0.403399473090180     -1.278465946224640      1.345862177151754
X       1.329261302233651     -2.391383847783749      0.844827355144771
X       2.413090163983442      1.833904419960922     -0.596591273670606
X       2.387886962172529      1.608182049130485     -0.546018329742140
X       2.640223911395836      1.883387962266469     -0.642575623734591
X       2.344273212796132      1.974988383864574     -0.413547947823989
X       2.272039453631372      1.879704276221444     -0.788633320891975
X       2.866443787021554      1.058391687307523     -1.022676368826122
X       3.071155719008753      1.341491462181078     -0.039406143726848
X       2.428033464518109      2.664865064847923     -0.838670320176442
X      -0.154917753714578      0.988517359349054      0.181627120181901
X      -0.439983530998654      0.575852763089411      0.990460942262332
X      -0.673668446514420      0.253734313015905     -0.129387181974125
X      -0.555776629969359      1.781063977171408      0.037562356443018
X       3.585206986945127      0.462007766420313     -0.447591151652455
X       4.432478950131927      0.650251228217689     -0.678501124035584
X      -0.437107086308792     -1.332591064727904      0.908467689993927
X      -0.677837459650179     -0.719705404898382      0.782238003985171
X      -0.926794262439757     -2.020841496027402      1.208659961557977
X      -0.975517848282120     -0.127689375076718      0.674019691232458
X      -1.846667292190279      0.039497914506960      0.807721830793341
He      1.704743968833267     -0.531139478789822      0.231133668959139
He      1.135086511284301      0.701871690811164     -0.004938656882537
He      1.422222380849917      0.087531674892539      0.111962591593964
He      3.150527470271301     -0.624154900637365     -0.043669018527813
He      2.452576054980953     -0.676948606530998     -0.320098303801698
He      2.614713529889577     -0.453341831202316      0.456488569979917
He      3.522142378884628     -1.136039457463429      0.026342021425500
He      0.990473667808705     -1.577216461282015      0.681310787349715
He      1.357445975164205     -1.048730857146085      0.452637806611819
He      2.412976590022248      1.833863005965900     -0.596593342213377
He      2.334946948771444      1.972856023833097     -0.414055304367606
He      2.640156606414815      1.883838313651631     -0.648474919713802
He      2.276016140987100      1.880526404470049     -0.791851647301685
He      2.394006911425715      1.611342130199003     -0.536884715773961
He      1.788204982720694      1.346358953911134      0.090008110016242
He      1.633934609870303      1.133682821593214     -0.648942224872927
He      2.427949561963890      2.661408484503927     -0.837715598716825
He     -0.154915752982076      0.988519511551552      0.181630809614630
He      0.496721401301260      0.851610606238160      0.085176612663986
He      3.585208985787387      0.462006570372696     -0.447592745466635
He      3.070988912631341      1.341450799959625     -0.039954452834397
He      2.866480800425097      1.058685841399246     -1.021872781071558
He      3.337537201373063     -0.068489543468779     -0.242923657452011
He     -0.437106898451884     -1.332591758827643      0.908468169916342
He      0.403392205762552     -1.278463464840531      1.345856941426752
He      0.170866069353422     -1.599648055220431      0.230363370361561
He     -0.975517443149284     -0.127690167322696      0.674020507027826
He     -0.673647595018934      0.253749042533427     -0.129392213457553
He     -0.439976189348553      0.575878623710631      0.990452687374602
He     -0.677839175122543     -0.719702666867898      0.782236487700753
He      1.329259432310043     -2.391383453585277      0.844826162919360
He     -0.555775650171215      1.781068340323386      0.037565562031352
He      4.432514461263282      0.650228285513637     -0.678484510329625
He     -0.926798283290594     -2.020841478143159      1.208660874345477
He     -1.846664801222163      0.039500398770682      0.807725580658128
