86
xyz
C       2.646800000000000      1.923600000000000      2.320500000000000
C       3.916300000000000      2.716600000000000      2.211200000000000
C       4.896600000000000      2.001000000000000      2.919900000000000
C       4.102000000000000      3.924000000000000      1.544100000000000
C       2.951100000000000      0.785800000000000      3.087200000000000
C       1.405100000000000      2.238300000000000      1.776000000000000
C       4.308300000000000      0.838800000000000      3.444600000000000
C       3.175800000000000      4.685100000000000      0.824500000000000
C       1.034300000000000      3.346300000000000      1.008400000000000
C       1.822300000000000      4.423700000000000      0.592100000000000
H       5.930300000000000      2.305000000000000      3.035300000000000
H       5.112100000000000      4.331200000000000      1.590900000000000
H       2.247800000000000      0.005000000000000      3.351900000000000
H       0.612400000000000      1.517700000000000      1.978400000000000
H       4.825700000000000      0.092400000000000      4.038500000000000
H       3.560400000000000      5.603900000000000      0.387100000000000
H      -0.006400000000000      3.373800000000000      0.692900000000000
H       1.302800000000000      5.172900000000000     -0.003700000000000
X       2.639991237025172      1.967061060251975      2.292640268034186
X       3.245514671714301      2.363936500189399      2.229325463170999
X       2.663573983701174      1.539976114955460      3.085607035585954
X       2.875417986786780      1.098828090941201      2.346763755164901
X       2.040034054655274      2.142026343443764      2.015864175951205
X       3.916202498097853      2.679490138458268      2.233343946468965
X       4.428206942684359      2.379581715820805      2.559338929724542
X       4.061551364936283      3.085104682258464      1.531282899218278
X       3.861345547735235      3.501398535296550      2.228636776776950
X       4.902218833445441      2.035994125620150      2.900637654605780
X       4.740529526858992      1.124308488918291      2.699622441883184
X       4.461620746251643      1.704122389629583      3.671116321902677
X       5.765785897502449      2.258344891184277      3.015913023299950
X       4.103723018749823      3.961176617012620      1.522416968100328
X       3.606435803824123      4.283295473226936      1.187605532531087
X       4.914137806516795      4.271319845493605      1.569826764674601
X       2.971731097279288      0.757377027971801      3.110146495844160
X       3.633202043124463      0.769061776112792      3.292656824599570
X       2.370577330929766      0.124412048965031      3.315809443074554
X       1.424613588855488      2.208833789431203      1.799155546229303
X       1.426006256466776      2.536882045745029      0.906918672297779
X       1.147675774963065      3.115129568061624      1.876090012632232
X       0.762414538755475      1.655869877212188      1.939011930264466
X       4.279772573366007      0.811498043067671      3.452708348502520
X       4.738480401759874      0.222193098181482      3.935945370718977
X       3.215531702472138      4.684304682549620      0.836375558968283
X       2.374975172966126      4.776773782431968      1.228413336390167
X       2.649671917004912      4.205910970999753      0.271086389142732
X       3.492466830365539      5.426176074213442      0.473571828581618
X       1.031067150490849      3.380236843018350      0.987214019153536
X       1.469808137831507      3.864202809788531      0.824514751871180
X       0.194021297121927      3.373116776307366      0.750991868570199
X       1.784340944057329      4.409779706716439      0.589470582967076
X       1.398876145128482      5.024318311263502      0.112442176985434
He      2.681238351661444      1.907727134192890      2.339835604341023
He      3.888545955999865      2.738007261138615      2.190491507735574
He      3.252306322786960      2.367882059511161      2.228891923727595
He      4.911167499295698      1.971473680583017      2.941747995268492
He      4.588668587776330      2.075613214387677      2.073485356611703
He      4.303934641221828      2.667514338697098      3.065086305592295
He      4.122439144829248      3.896131766286944      1.566548503575903
He      3.957512933361767      3.324723629108832      1.860083300206302
He      2.915573883473242      0.794374875611427      3.071906023242708
He      2.757170913428446      1.345269860624787      2.697509456735420
He      1.373636535153814      2.255568706784594      1.756671010676001
He      2.206804120496853      1.823557248710450      1.560796301310292
He      1.930096442451497      2.398839618818602      2.524269472024417
He      4.345819185713967      0.851610234123035      3.447695803666084
He      4.635926855663270      1.407679919042807      3.199105779183396
He      3.776144129221012      0.518834165641753      2.783467094285057
He      3.497135178159868      1.099673603372281      3.756586660507182
He      3.144156160779137      4.701184922724598      0.805821892627871
He      3.439230589477331      4.551452734927088      1.675584910973964
He      3.716879707365464      3.974268737725104      0.707692072127924
He      1.018024789539250      3.312625643670879      1.023891856739443
He      1.264677489825640      2.808842694214322      1.395317619024876
He      1.850744180489917      4.451193991419706      0.583816325325908
He      2.503052809809731      4.509283865876566      0.736352416850550
He      1.346695484793512      4.136035446899547      1.317534754451587
He      1.622230903650205      3.563377482924706      0.357408913964033
He      5.749158417864972      2.258057918161648      3.011309959905951
He      4.917452631457638      4.251562343926790      1.582547395799584
He      2.358774029851494      0.131964676101964      3.307921027486797
He      0.770191080763808      1.663354418117445      1.936872533488027
He      4.733390086078591      0.219023218475513      3.936485084082518
He      3.482505063592737      5.427862864908195      0.469680808363984
He      0.191832362408302      3.363760678120831      0.755945184237763
He      1.408235343424963      5.029772937939377      0.111830844139189
