86
xyz
C       2.646800000000000      1.923600000000000      2.320500000000000
C       3.916300000000000      2.716600000000000      2.211200000000000
C       4.896600000000000      2.001000000000000      2.919900000000000
C       4.102000000000000      3.924000000000000      1.544100000000000
C       2.951100000000000      0.785800000000000      3.087200000000000
C       1.405100000000000      2.238300000000000      1.776000000000000
C       4.308300000000000      0.838800000000000      3.444600000000000
C       3.175800000000000      4.685100000000000      0.824500000000000
C       1.034300000000000      3.346300000000000      1.008400000000000
C       1.822300000000000      4.423700000000000      0.592100000000000
H       5.930300000000000      2.305000000000000      3.035300000000000
H       5.112100000000000      4.331200000000000      1.590900000000000
H       2.247800000000000      0.005000000000000      3.351900000000000
H       0.612400000000000      1.517700000000000      1.978400000000000
H       4.825700000000000      0.092400000000000      4.038500000000000
H       3.560400000000000      5.603900000000000      0.387100000000000
H      -0.006400000000000      3.373800000000000      0.692900000000000
H       1.302800000000000      5.172900000000000     -0.003700000000000
X       2.637853190951430      1.963007226135802      2.294434849539560
X       3.247544251454065      2.360437533797777      2.231991476268654
X       2.666671486610726      1.534799913214667      3.089129309613835
X       2.878323316510963      1.094074347212851      2.350986629064460
X       2.044098934371921      2.141641218942047      2.017256008316200
X       3.916672608693461      2.676643854841380      2.235171343012525
X       4.425853821560777      2.380645908534757      2.558032839155739
X       4.062550516840143      3.086587714570998      1.530373547938686
X       3.862196803628238      3.503173992737253      2.228223879721571
X       4.902707975037884      2.037913906815660      2.899636238780558
X       4.737579994293954      1.123529264863242      2.694169054588488
X       4.456656784193812      1.707516607199238      3.672669330087598
X       5.766939742705338      2.260300692852328      3.015072707725725
X       4.102030170782458      3.963090639159971      1.520782313142524
X       3.609156874482340      4.282187119915064      1.189045849041094
X       4.915801507927258      4.271566616061199      1.570165486868628
X       2.973319383993657      0.755755007453172      3.111565027266006
X       3.631868410043371      0.766528569939862      3.293779076352594
X       2.370496569204046      0.121989483702848      3.317232417553016
X       1.426240803250508      2.207699004129335      1.800298777060725
X       1.427865722225403      2.538275375384103      0.901742809099251
X       1.147593470618226      3.120570204049082      1.877689809787706
X       0.762401932381135      1.654634758427844      1.939748783189311
X       4.278296300882820      0.810089661726373      3.453124501281833
X       4.737767119974578      0.218908523791272      3.937701933268756
X       3.217295616373091      4.683443546569884      0.837400778821642
X       2.378711089801748      4.779134046040937      1.233337792233347
X       2.655521097495713      4.203875778871976      0.268643706659351
X       3.494080683226021      5.427658947177738      0.473150400368881
X       1.032344523558230      3.382765878147014      0.986073051776618
X       1.468958412472893      3.865671555344906      0.823390496047543
X       0.192663051612644      3.374375061529663      0.749844967443231
X       1.782227428481817      4.407391131081984      0.590288048141406
X       1.398150809452622      5.024734844002852      0.111987079234195
He      2.637853188109693      1.963007228659069      2.294434847267020
He      3.916672610240886      2.676643850853840      2.235171345853593
He      3.247544253918722      2.360437525519741      2.231991481928688
He      4.902707976407314      2.037913902170950      2.899636241952522
He      4.425853837835040      2.380645938803329      2.558032825671433
He      4.102030173687380      3.963090636466016      1.520782315606357
He      3.862196788370196      3.503174087408708      2.228223820105012
He      4.062550502382324      3.086587807780704      1.530373486014327
He      2.973319378271075      0.755755010044601      3.111565024033798
He      2.878323382822937      1.094074248035503      2.350986702889419
He      2.666671551156576      1.534799817668382      3.089129389301076
He      1.426240799511944      2.207699006470415      1.800298774609488
He      2.044098925250284      2.141641177419343      2.017256030354487
He      4.278296294248808      0.810089659912044      3.453124500375538
He      4.456656853579513      1.707516726229299      3.672669279548187
He      4.737580063923039      1.123529383369175      2.694169003443266
He      3.631868420252912      0.766528569552289      3.293779079356505
He      3.217295621464701      4.683443544677790      0.837400781423462
He      3.609156865877418      4.282187126420624      1.189045842585488
He      1.032344525713995      3.382765884067561      0.986073048788255
He      1.147593513044634      3.120570086898565      1.877689886764053
He      1.427865762719789      2.538275262359813      0.901742892531002
He      1.782227431938681      4.407391135746523      0.590288046370290
He      2.655520968335795      4.203875751828948      0.268643685010364
He      2.378710960108780      4.779134020117841      1.233337772505479
He      1.468958401599527      3.865671544363316      0.823390499408474
He      5.766939745553826      2.260300703301430      3.015072702282376
He      4.915801512359364      4.271566625412973      1.570165482524756
He      2.370496569184464      0.121989470357769      3.317232425528276
He      0.762401938150882      1.654634747632706      1.939748791256405
He      4.737767123081134      0.218908533997073      3.937701928054009
He      3.494080669698492      5.427658941941603      0.473150399622410
He      0.192663057945958      3.374375052315819      0.749844974655545
He      1.398150795751026      5.024734843916119      0.111987075402893
