100
xyz
C       3.020000000000000      3.218500000000000      1.606400000000000
O       3.750700000000000      4.092500000000000      1.154000000000000
C       3.353900000000000      2.466600000000000      2.850700000000000
C       1.751400000000000      2.867400000000000      0.919100000000000
C       2.488000000000000      1.467800000000000      3.338000000000000
C       4.536800000000000      2.757400000000000      3.537000000000000
C       0.925600000000000      1.914900000000000      1.383700000000000
C       1.221900000000000      1.144700000000000      2.618300000000000
C       2.815500000000000      0.772300000000000      4.505700000000000
C       4.856400000000000      2.059700000000000      4.700400000000000
O       0.445900000000000      0.282400000000000      3.014200000000000
C       3.996400000000000      1.067900000000000      5.184400000000000
H       1.538100000000000      3.433400000000000      0.016300000000000
H       5.187600000000000      3.530700000000000      3.141500000000000
H      -0.003600000000000      1.655000000000000      0.883800000000000
H       2.132600000000000      0.007500000000000      4.861600000000000
H       5.776200000000000      2.287200000000000      5.232000000000000
H       4.249000000000000      0.526100000000000      6.091600000000000
X       2.990844937484414      3.185314697294749      1.622143455652305
X       3.232017712285482      3.927056489883252      1.568416746237004
X       3.581988595415520      3.430339160407304      1.173937884603923
X       3.187534896197912      2.845753966689790      2.225336870024499
X       2.384369793090283      3.022661825754374      1.287281654256740
X       3.764778205451575      4.109328683754734      1.145177508481455
X       4.253838282410994      4.257539940725177      1.392771606696983
X       3.634851037398638      4.392617977762139      0.673704146361367
X       3.387678256464802      2.501602145404700      2.836716793458007
X       3.113703750531701      1.678435556986954      2.844789445833554
X       2.700276480237772      2.263359705048393      3.309352738621131
X       3.944224183585307      2.628035691343756      3.172679591947799
X       1.780401447237174      2.893597519854916      0.912010584115141
X       1.097435850066927      2.768313682875176      1.496304191617402
X       1.642846072131033      1.996912442059827      0.884035199126217
X       1.581843225659905      3.328703867132038      0.187151025767436
X       2.459827294479721      1.431300191370886      3.358873729553730
X       1.850990802343618      1.304123125467902      2.977397210553592
X       2.628604757570165      1.110494732061298      3.913028468191420
X       4.519181524492192      2.772243752203734      3.502538349143406
X       4.927928292581556      1.997746768419573      3.799271567275918
X       4.378616802747390      2.775533200446053      4.416497713138252
X       5.055061355532931      3.380726837915452      3.212493791935672
X       0.906848557929534      1.885971053762435      1.403423877104684
X       1.101604633227501      1.542967116964510      2.009125214665233
X       0.170923209986933      1.701235754307932      0.980900346253564
X       1.250366037208096      1.178084138834470      2.601683051384216
X       0.990387700925913      0.441422388975967      2.632073908201402
X       0.640190298191936      0.937946734067973      3.027007748164386
X       2.783610504641279      0.770689834007453      4.479274117914358
X       3.135187698480964      1.341394680536918      5.116126284150869
X       3.684611246591843      0.563845197388604      4.499054769965592
X       2.261108052629059      0.158566059487943      4.785565911000391
X       4.857721942659531      2.033505248144908      4.734653456520213
X       4.429553326781241      1.562987758100394      4.946437798426917
X       5.602073830935598      2.239343555521366      5.137520393727854
X       0.430917588726580      0.265766037782589      3.021794978933745
X       0.525933012824962     -0.040123007651608      3.490597433521552
X      -0.048320831635522      0.146436920307993      2.746991075176903
X       4.034119904762353      1.083698888280318      5.198135712598196
X       4.207825177743062      0.631619872264715      5.922138598381225
He      2.990844937388613      3.185314697199170      1.622143455694843
He      3.764778205515037      4.109328683827260      1.145177508445256
He      3.581988597110368      3.430339162051773      1.173937884039977
He      3.232017713400417      3.927056491659930      1.568416744995330
He      4.253838281567356      4.257539939781988      1.392771607904841
He      3.634851036321719      4.392617976393060      0.673704146366343
He      3.387678256147492      2.501602145063259      2.836716793588880
He      3.187534897008372      2.845753967512310      2.225336869869396
He      1.780401447058525      2.893597519718244      0.912010584118021
He      2.384369793824143      3.022661826550541      1.287281653718261
He      2.459827294090956      1.431300191001176      3.358873729682435
He      2.700276487489984      2.263359713071864      3.309352735076055
He      3.113703757829759      1.678435565043418      2.844789442189198
He      4.519181524237472      2.772243752172681      3.502538348956731
He      3.944224184057185      2.628035691879316      3.172679591674374
He      0.906848558005404      1.885971053561703      1.403423877390769
He      1.642846074842282      1.996912445625879      0.884035197165043
He      1.097435852873659      2.768313686503618      1.496304189689906
He      1.250366036551025      1.178084138092558      2.601683051719838
He      1.850990803981702      1.304123128273659      2.977397208421352
He      1.101604636012746      1.542967119439075      2.009125214088527
He      2.783610504807871      0.770689833905851      4.479274118189478
He      2.628604757832893      1.110494732445237      3.913028467926363
He      4.857721942753106      2.033505248377740      4.734653456309816
He      4.378616804926718      2.775533196552713      4.416497720238057
He      4.927928294969362      1.997746764235400      3.799271574140365
He      0.430917588341173      0.265766037363108      3.021794979110497
He      0.640190307443038      0.937946746001040      3.027007743970652
He      0.990387711553789      0.441422399013377      2.632073902443997
He      0.525933019164073     -0.040123004482681      3.490597435115972
He     -0.048320830604598      0.146436925156444      2.746991069904011
He      4.034119905024703      1.083698888475103      5.198135712584390
He      3.684611239582739      0.563845195952234      4.499054765975886
He      3.135187691652946      1.341394678844073      5.116126279935644
He      4.429553326386989      1.562987757763693      4.946437798498097
He      1.581843226668693      3.328703868036718      0.187151025537248
He      5.055061355394612      3.380726837502166      3.212493792332717
He      0.170923210501469      1.701235755256782      0.980900345517869
He      2.261108052022908      0.158566059210519      4.785565910807808
He      5.602073831278983      2.239343555264229      5.137520394357773
He      4.207825177103706      0.631619872207582      5.922138597889196
