86               
angstrom
C       2.64680000     1.92360000     2.32050000
C       3.91630000     2.71660000     2.21120000
C       4.89660000     2.00100000     2.91990000
C       4.10200000     3.92400000     1.54410000
C       2.95110000     0.78580000     3.08720000
C       1.40510000     2.23830000     1.77600000
C       4.30830000     0.83880000     3.44460000
C       3.17580000     4.68510000     0.82450000
C       1.03430000     3.34630000     1.00840000
C       1.82230000     4.42370000     0.59210000
H       5.93030000     2.30500000     3.03530000
H       5.11210000     4.33120000     1.59090000
H       2.24780000     0.00500000     3.35190000
H       0.61240000     1.51770000     1.97840000
H       4.82570000     0.09240000     4.03850000
H       3.56040000     5.60390000     0.38710000
H      -0.00640000     3.37380000     0.69290000
H       1.30280000     5.17290000    -0.00370000
X      2.64680000     1.92360000     2.32050000
X      3.28155000     2.32010000     2.26585000
X      2.79895000     1.35470000     2.70385000
X      1.92607948     2.28881119     2.39635886
X      2.12582052     1.87308881     1.70014114
X      3.91630000     2.71660000     2.21120000
X      4.50634006     2.15091085     2.21746520
X      4.30655994     2.56668915     2.91363480
X      4.00915000     3.32030000     1.87765000
X      4.89660000     2.00100000     2.91990000
X      4.60245000     1.41990000     3.18225000
X      5.77524500     2.25940000     3.01799000
X      4.10200000     3.92400000     1.54410000
X      3.49426887     4.60553417     1.68879751
X      3.78353113     4.00356583     0.67980249
X      4.96058500     4.27012000     1.58388000
X      2.95110000     0.78580000     3.08720000
X      3.48596795     1.11173054     3.76730828
X      3.77343205     0.51286946     2.76449172
X      2.35329500     0.12212000     3.31219500
X      1.40510000     2.23830000     1.77600000
X      1.21970000     2.79230000     1.39220000
X      0.73130500     1.62579000     1.94804000
X      4.30830000     0.83880000     3.44460000
X      4.74809000     0.20436000     3.94941500
X      3.17580000     4.68510000     0.82450000
X      2.49905000     4.55440000     0.70830000
X      3.50271000     5.46608000     0.45271000
X      1.03430000     3.34630000     1.00840000
X      1.57297180     3.58468823     0.29687617
X      1.28362820     4.18531177     1.30362383
X      0.14970500     3.36967500     0.74022500
X      1.82230000     4.42370000     0.59210000
X      1.38072500     5.06052000     0.08567000
He      2.64680000     1.92360000     2.32050000
He      3.91630000     2.71660000     2.21120000
He      3.28155000     2.32010000     2.26585000
He      4.89660000     2.00100000     2.91990000
He      4.40645000     2.35880000     2.56555000
He      4.10200000     3.92400000     1.54410000
He      3.86451887     3.62128417     2.38214751
He      4.15378113     3.01931583     1.37315249
He      2.95110000     0.78580000     3.08720000
He      2.65521795     1.65413054     3.20525828
He      2.94268205     1.05526946     2.20244172
He      1.40510000     2.23830000     1.77600000
He      2.02595000     2.08095000     2.04825000
He      4.30830000     0.83880000     3.44460000
He      4.74640236     1.12029455     2.68003105
He      4.45849764     1.71950545     3.68446895
He      3.62970000     0.81230000     3.26590000
He      3.17580000     4.68510000     0.82450000
He      3.63890000     4.30455000     1.18430000
He      1.03430000     3.34630000     1.00840000
He      1.36437180     2.49198823     0.88882617
He      1.07502820     3.09261177     1.89557383
He      1.82230000     4.42370000     0.59210000
He      2.35444835     4.85494576     1.21241218
He      2.64365165     4.25385424     0.20418782
He      1.42830000     3.88500000     0.80025000
He      5.77524500     2.25940000     3.01799000
He      4.96058500     4.27012000     1.58388000
He      2.35329500     0.12212000     3.31219500
He      0.73130500     1.62579000     1.94804000
He      4.74809000     0.20436000     3.94941500
He      3.50271000     5.46608000     0.45271000
He      0.14970500     3.36967500     0.74022500
He      1.38072500     5.06052000     0.08567000
