36               
angstrom
C       0.71430000    -0.67320000     0.00020000
C       0.71480000     0.67270000    -0.00020000
C      -0.71490000    -0.67260000    -0.00020000
C      -0.71420000     0.67320000     0.00020000
H       1.46990000    -1.44980000     0.00030000
H       1.47100000     1.44850000    -0.00030000
H      -1.47110000    -1.44850000    -0.00030000
H      -1.46980000     1.44960000     0.00020000
X      0.71430000    -0.67320000     0.00020000
X      0.71455000    -0.00025000     0.00000000
X     -0.00013177    -0.67307879    -0.60135953
X     -0.00046823    -0.67272121     0.60135953
X      1.35656000    -1.33331000     0.00028500
X      0.71480000     0.67270000    -0.00020000
X      0.00046837     0.67312864     0.60127377
X      0.00013163     0.67277136    -0.60127377
X      1.35757000     1.33213000    -0.00028500
X     -0.71490000    -0.67260000    -0.00020000
X     -0.71455000     0.00030000     0.00000000
X     -1.35767000    -1.33211500    -0.00028500
X     -0.71420000     0.67320000     0.00020000
X     -1.35646000     1.33314000     0.00020000
He      0.71430000    -0.67320000     0.00020000
He      0.71480000     0.67270000    -0.00020000
He      0.71455000    -0.00025000     0.00000000
He     -0.71490000    -0.67260000    -0.00020000
He     -0.00046823    -0.67272121     0.60135953
He     -0.00013177    -0.67307879    -0.60135953
He     -0.71420000     0.67320000     0.00020000
He      0.00013163     0.67277136    -0.60127377
He      0.00046837     0.67312864     0.60127377
He     -0.71455000     0.00030000     0.00000000
He      1.35656000    -1.33331000     0.00028500
He      1.35757000     1.33213000    -0.00028500
He     -1.35767000    -1.33211500    -0.00028500
He     -1.35646000     1.33314000     0.00020000
