118              
angstrom
C       3.40440000     2.11810000     1.19610000
C       3.56470000     3.46420000     0.69470000
C       4.54300000     1.33020000     1.40650000
C       2.08320000     1.63870000     1.46000000
C       4.85400000     3.94410000     0.43270000
C       2.39510000     4.25950000     0.48360000
C       5.83230000     1.81010000     1.14460000
C       0.98860000     2.43360000     1.24420000
C       5.99260000     3.15620000     0.64310000
C       1.14680000     3.76190000     0.74930000
C       7.00190000     1.01480000     1.35560000
C       7.31380000     3.63550000     0.37920000
C       8.25020000     1.51230000     1.08990000
C       8.40840000     2.84070000     0.59500000
H       4.42250000     0.31660000     1.78420000
H       1.96570000     0.62560000     1.83730000
H       4.97450000     4.95770000     0.05500000
H       2.51840000     5.27190000     0.10620000
H      -0.00950000     2.05610000     1.44930000
H       0.26690000     4.37780000     0.58410000
H       6.87860000     0.00230000     1.73300000
H       7.43130000     4.64870000     0.00190000
H       9.13010000     0.89640000     1.25510000
H       9.40650000     3.21810000     0.39000000
X      3.40440000     2.11810000     1.19610000
X      3.48455000     2.79115000     0.94540000
X      4.00025792     1.86773366     1.69526728
X      3.94714208     1.58056634     0.90733272
X      2.74380000     1.87840000     1.32805000
X      3.56470000     3.46420000     0.69470000
X      4.18273483     3.56058193     0.16975626
X      4.23596517     3.84771807     0.95764374
X      2.97990000     3.86185000     0.58915000
X      4.54300000     1.33020000     1.40650000
X      5.18765000     1.57015000     1.27555000
X      4.44057500     0.46864000     1.72754500
X      2.08320000     1.63870000     1.46000000
X      1.49769779     1.82991047     0.78618868
X      1.57410221     2.24238953     1.91801132
X      1.98332500     0.77756500     1.78070500
X      4.85400000     3.94410000     0.43270000
X      5.42330000     3.55015000     0.53790000
X      4.95642500     4.80566000     0.11165500
X      2.39510000     4.25950000     0.48360000
X      1.80913667     4.21706340     1.18233198
X      1.73276333     3.80433660     0.05056802
X      2.49990500     5.12004000     0.16281000
X      5.83230000     1.81010000     1.14460000
X      5.91245000     2.48315000     0.89385000
X      6.44367088     1.55604750     1.64403002
X      6.39052912     1.26885250     0.85616998
X      0.98860000     2.43360000     1.24420000
X      1.06770000     3.09775000     0.99675000
X      0.14021500     2.11272500     1.41853500
X      5.99260000     3.15620000     0.64310000
X      6.62662403     3.25224287     0.11719249
X      6.67977597     3.53945713     0.90510751
X      1.14680000     3.76190000     0.74930000
X      0.39888500     4.28541500     0.60888000
X      7.00190000     1.01480000     1.35560000
X      7.62605000     1.26355000     1.22275000
X      6.89709500     0.15417500     1.67639000
X      7.31380000     3.63550000     0.37920000
X      7.86110000     3.23810000     0.48710000
X      7.41367500     4.49672000     0.05849500
X      8.25020000     1.51230000     1.08990000
X      8.36751532     2.38262536     1.40794322
X      8.29108468     1.97037464     0.27695678
X      8.99811500     0.98878500     1.23032000
X      8.40840000     2.84070000     0.59500000
X      9.25678500     3.16149000     0.42075000
He      3.40440000     2.11810000     1.19610000
He      3.56470000     3.46420000     0.69470000
He      3.48455000     2.79115000     0.94540000
He      4.54300000     1.33020000     1.40650000
He      3.94714208     1.58056634     0.90733272
He      4.00025792     1.86773366     1.69526728
He      2.08320000     1.63870000     1.46000000
He      2.74380000     1.87840000     1.32805000
He      4.85400000     3.94410000     0.43270000
He      4.23596517     3.84771807     0.95764374
He      4.18273483     3.56058193     0.16975626
He      2.39510000     4.25950000     0.48360000
He      2.97990000     3.86185000     0.58915000
He      5.83230000     1.81010000     1.14460000
He      5.18765000     1.57015000     1.27555000
He      0.98860000     2.43360000     1.24420000
He      1.57410221     2.24238953     1.91801132
He      1.49769779     1.82991047     0.78618868
He      5.99260000     3.15620000     0.64310000
He      5.42330000     3.55015000     0.53790000
He      5.91245000     2.48315000     0.89385000
He      1.14680000     3.76190000     0.74930000
He      1.73276333     3.80433660     0.05056802
He      1.80913667     4.21706340     1.18233198
He      1.06770000     3.09775000     0.99675000
He      7.00190000     1.01480000     1.35560000
He      6.39052912     1.26885250     0.85616998
He      6.44367088     1.55604750     1.64403002
He      7.31380000     3.63550000     0.37920000
He      6.67977597     3.53945713     0.90510751
He      6.62662403     3.25224287     0.11719249
He      8.25020000     1.51230000     1.08990000
He      7.62605000     1.26355000     1.22275000
He      8.40840000     2.84070000     0.59500000
He      8.29108468     1.97037464     0.27695678
He      8.36751532     2.38262536     1.40794322
He      7.86110000     3.23810000     0.48710000
He      4.44057500     0.46864000     1.72754500
He      1.98332500     0.77756500     1.78070500
He      4.95642500     4.80566000     0.11165500
He      2.49990500     5.12004000     0.16281000
He      0.14021500     2.11272500     1.41853500
He      0.39888500     4.28541500     0.60888000
He      6.89709500     0.15417500     1.67639000
He      7.41367500     4.49672000     0.05849500
He      8.99811500     0.98878500     1.23032000
He      9.25678500     3.16149000     0.42075000
