18

C       3.020000000000000      3.218500000000000      1.606400000000000
O       3.750700000000000      4.092500000000000      1.154000000000000
C       3.353900000000000      2.466600000000000      2.850700000000000
C       1.751400000000000      2.867400000000000      0.919100000000000
C       2.488000000000000      1.467800000000000      3.338000000000000
C       4.536800000000000      2.757400000000000      3.537000000000000
C       0.925600000000000      1.914900000000000      1.383700000000000
C       1.221900000000000      1.144700000000000      2.618300000000000
C       2.815500000000000      0.772300000000000      4.505700000000000
C       4.856400000000000      2.059700000000000      4.700400000000000
O       0.445900000000000      0.282400000000000      3.014200000000000
C       3.996400000000000      1.067900000000000      5.184400000000000
H       1.538100000000000      3.433400000000000      0.016300000000000
H       5.187600000000000      3.530700000000000      3.141500000000000
H      -0.003600000000000      1.655000000000000      0.883800000000000
H       2.132600000000000      0.007500000000000      4.861600000000000
H       5.776200000000000      2.287200000000000      5.232000000000000
H       4.249000000000000      0.526100000000000      6.091600000000000
